%YAML 1.1
%TAG !u! tag:unity3d.com,2011:
--- !u!114 &11400000
MonoBehaviour:
  m_ObjectHideFlags: 0
  m_CorrespondingSourceObject: {fileID: 0}
  m_PrefabInstance: {fileID: 0}
  m_PrefabAsset: {fileID: 0}
  m_GameObject: {fileID: 0}
  m_Enabled: 1
  m_EditorHideFlags: 0
  m_Script: {fileID: 11500000, guid: f2d67a8881d338141a38250f24f2e77f, type: 3}
  m_Name: GD
  m_EditorClassIdentifier: 
  maxHealth: 4
  friction: 1
  speciality: 0
  sprite: {fileID: 0}
