%YAML 1.1
%TAG !u! tag:unity3d.com,2011:
--- !u!1001 &8011296434524292101
PrefabInstance:
  m_ObjectHideFlags: 0
  serializedVersion: 2
  m_Modification:
    m_TransformParent: {fileID: 0}
    m_Modifications:
    - target: {fileID: 6097664577035064642, guid: 0bc9555a913bfbe4d94f90b09a8c58d0,
        type: 3}
      propertyPath: m_Name
      value: SmallHP Green
      objectReference: {fileID: 0}
    - target: {fileID: 6097664577035064641, guid: 0bc9555a913bfbe4d94f90b09a8c58d0,
        type: 3}
      propertyPath: m_LocalPosition.x
      value: 0
      objectReference: {fileID: 0}
    - target: {fileID: 6097664577035064641, guid: 0bc9555a913bfbe4d94f90b09a8c58d0,
        type: 3}
      propertyPath: m_LocalPosition.y
      value: 0
      objectReference: {fileID: 0}
    - target: {fileID: 6097664577035064641, guid: 0bc9555a913bfbe4d94f90b09a8c58d0,
        type: 3}
      propertyPath: m_LocalPosition.z
      value: 0
      objectReference: {fileID: 0}
    - target: {fileID: 6097664577035064641, guid: 0bc9555a913bfbe4d94f90b09a8c58d0,
        type: 3}
      propertyPath: m_LocalRotation.x
      value: 0
      objectReference: {fileID: 0}
    - target: {fileID: 6097664577035064641, guid: 0bc9555a913bfbe4d94f90b09a8c58d0,
        type: 3}
      propertyPath: m_LocalRotation.y
      value: 0
      objectReference: {fileID: 0}
    - target: {fileID: 6097664577035064641, guid: 0bc9555a913bfbe4d94f90b09a8c58d0,
        type: 3}
      propertyPath: m_LocalRotation.z
      value: 0
      objectReference: {fileID: 0}
    - target: {fileID: 6097664577035064641, guid: 0bc9555a913bfbe4d94f90b09a8c58d0,
        type: 3}
      propertyPath: m_LocalRotation.w
      value: 1
      objectReference: {fileID: 0}
    - target: {fileID: 6097664577035064641, guid: 0bc9555a913bfbe4d94f90b09a8c58d0,
        type: 3}
      propertyPath: m_RootOrder
      value: 0
      objectReference: {fileID: 0}
    - target: {fileID: 6097664577035064641, guid: 0bc9555a913bfbe4d94f90b09a8c58d0,
        type: 3}
      propertyPath: m_LocalEulerAnglesHint.x
      value: 0
      objectReference: {fileID: 0}
    - target: {fileID: 6097664577035064641, guid: 0bc9555a913bfbe4d94f90b09a8c58d0,
        type: 3}
      propertyPath: m_LocalEulerAnglesHint.y
      value: 0
      objectReference: {fileID: 0}
    - target: {fileID: 6097664577035064641, guid: 0bc9555a913bfbe4d94f90b09a8c58d0,
        type: 3}
      propertyPath: m_LocalEulerAnglesHint.z
      value: 0
      objectReference: {fileID: 0}
    - target: {fileID: 6097664577035064641, guid: 0bc9555a913bfbe4d94f90b09a8c58d0,
        type: 3}
      propertyPath: m_AnchoredPosition.x
      value: 0
      objectReference: {fileID: 0}
    - target: {fileID: 6097664577035064641, guid: 0bc9555a913bfbe4d94f90b09a8c58d0,
        type: 3}
      propertyPath: m_AnchoredPosition.y
      value: 0
      objectReference: {fileID: 0}
    - target: {fileID: 6097664577035064641, guid: 0bc9555a913bfbe4d94f90b09a8c58d0,
        type: 3}
      propertyPath: m_SizeDelta.x
      value: 100
      objectReference: {fileID: 0}
    - target: {fileID: 6097664577035064641, guid: 0bc9555a913bfbe4d94f90b09a8c58d0,
        type: 3}
      propertyPath: m_SizeDelta.y
      value: 100
      objectReference: {fileID: 0}
    - target: {fileID: 6097664577035064641, guid: 0bc9555a913bfbe4d94f90b09a8c58d0,
        type: 3}
      propertyPath: m_AnchorMin.x
      value: 0.5
      objectReference: {fileID: 0}
    - target: {fileID: 6097664577035064641, guid: 0bc9555a913bfbe4d94f90b09a8c58d0,
        type: 3}
      propertyPath: m_AnchorMin.y
      value: 0.5
      objectReference: {fileID: 0}
    - target: {fileID: 6097664577035064641, guid: 0bc9555a913bfbe4d94f90b09a8c58d0,
        type: 3}
      propertyPath: m_AnchorMax.x
      value: 0.5
      objectReference: {fileID: 0}
    - target: {fileID: 6097664577035064641, guid: 0bc9555a913bfbe4d94f90b09a8c58d0,
        type: 3}
      propertyPath: m_AnchorMax.y
      value: 0.5
      objectReference: {fileID: 0}
    - target: {fileID: 6097664577035064641, guid: 0bc9555a913bfbe4d94f90b09a8c58d0,
        type: 3}
      propertyPath: m_Pivot.x
      value: 0.5
      objectReference: {fileID: 0}
    - target: {fileID: 6097664577035064641, guid: 0bc9555a913bfbe4d94f90b09a8c58d0,
        type: 3}
      propertyPath: m_Pivot.y
      value: 0.5
      objectReference: {fileID: 0}
    - target: {fileID: 4624055447643156123, guid: 0bc9555a913bfbe4d94f90b09a8c58d0,
        type: 3}
      propertyPath: m_LocalScale.x
      value: 0.5
      objectReference: {fileID: 0}
    - target: {fileID: 4624055447643156123, guid: 0bc9555a913bfbe4d94f90b09a8c58d0,
        type: 3}
      propertyPath: m_LocalScale.y
      value: 0.5
      objectReference: {fileID: 0}
    - target: {fileID: 253145861, guid: 0bc9555a913bfbe4d94f90b09a8c58d0, type: 3}
      propertyPath: m_Color.r
      value: 0.08410467
      objectReference: {fileID: 0}
    - target: {fileID: 253145861, guid: 0bc9555a913bfbe4d94f90b09a8c58d0, type: 3}
      propertyPath: m_Color.g
      value: 0.6603774
      objectReference: {fileID: 0}
    - target: {fileID: 253145861, guid: 0bc9555a913bfbe4d94f90b09a8c58d0, type: 3}
      propertyPath: m_Color.b
      value: 0.36067823
      objectReference: {fileID: 0}
    m_RemovedComponents: []
  m_SourcePrefab: {fileID: 100100000, guid: 0bc9555a913bfbe4d94f90b09a8c58d0, type: 3}
